<resources>
    <string name="app_name">Popular Movies</string>
    <string name="details_name">Movie Details</string>
    <string name="movies">{
    "page": 1,
    "total_results": 10000,
    "total_pages": 500,
    "results": [
        {
            "popularity": 440.675,
            "vote_count": 2801,
            "video": false,
            "poster_path": "\/xBHvZcjRiWyobQ9kxBhO6B2dtRI.jpg",
            "id": 419704,
            "adult": false,
            "backdrop_path": "\/5BwqwxMEjeFtdknRV792Svo0K1v.jpg",
            "original_language": "en",
            "original_title": "Ad Astra",
            "genre_ids": [
                18,
                878
            ],
            "title": "Ad Astra",
            "vote_average": 5.9,
            "overview": "The near future, a time when both hope and hardships drive humanity to look to the stars and beyond. While a mysterious phenomenon menaces to destroy life on planet Earth, astronaut Roy McBride undertakes a mission across the immensity of space and its many perils to uncover the truth about a lost expedition that decades before boldly faced emptiness and silence in search of the unknown.",
            "release_date": "2019-09-17"
        },
        {
            "popularity": 428.036,
            "vote_count": 3730,
            "video": false,
            "poster_path": "\/s5HQf2Gb3lIO2cRcFwNL9sn1o1o.jpg",
            "id": 335988,
            "adult": false,
            "backdrop_path": "\/1n00NlOGRFZVs8coBxyZLm5l4EC.jpg",
            "original_language": "en",
            "original_title": "Transformers: The Last Knight",
            "genre_ids": [
                28,
                12,
                878,
                53
            ],
            "title": "Transformers: The Last Knight",
            "vote_average": 6,
            "overview": "Autobots and Decepticons are at war, with humans on the sidelines. Optimus Prime is gone. The key to saving our future lies buried in the secrets of the past, in the hidden history of Transformers on Earth.",
            "release_date": "2017-06-16"
        },
        {
            "popularity": 324.592,
            "vote_count": 12099,
            "video": false,
            "poster_path": "\/5vHssUeVe25bMrof1HyaPyWgaP.jpg",
            "id": 245891,
            "adult": false,
            "backdrop_path": "\/lvjRFFyNLdaMWIMYQvoebeO1JlF.jpg",
            "original_language": "en",
            "original_title": "John Wick",
            "genre_ids": [
                28,
                53
            ],
            "title": "John Wick",
            "vote_average": 7.2,
            "overview": "Ex-hitman John Wick comes out of retirement to track down the gangsters that took everything from him.",
            "release_date": "2014-10-22"
        },
        {
            "popularity": 298.621,
            "vote_count": 7189,
            "video": false,
            "poster_path": "\/c9XxwwhPHdaImA2f1WEfEsbhaFB.jpg",
            "id": 351286,
            "adult": false,
            "backdrop_path": "\/3s9O5af2xWKWR5JzP2iJZpZeQQg.jpg",
            "original_language": "en",
            "original_title": "Jurassic World: Fallen Kingdom",
            "genre_ids": [
                28,
                12,
                878
            ],
            "title": "Jurassic World: Fallen Kingdom",
            "vote_average": 6.5,
            "overview": "Three years after the demise of Jurassic World, a volcanic eruption threatens the remaining dinosaurs on the isla Nublar, so Claire Dearing, the former park manager, recruits Owen Grady to help prevent the extinction of the dinosaurs once again.",
            "release_date": "2018-06-06"
        },
        {
            "popularity": 297.915,
            "vote_count": 2262,
            "video": false,
            "poster_path": "\/y95lQLnuNKdPAzw9F9Ab8kJ80c3.jpg",
            "id": 38700,
            "adult": false,
            "backdrop_path": "\/upUy2QhMZEmtypPW3PdieKLAHxh.jpg",
            "original_language": "en",
            "original_title": "Bad Boys for Life",
            "genre_ids": [
                28,
                80,
                53
            ],
            "title": "Bad Boys for Life",
            "vote_average": 7,
            "overview": "Marcus and Mike are forced to confront new threats, career changes, and midlife crises as they join the newly created elite team AMMO of the Miami police department to take down the ruthless Armando Armas, the vicious leader of a Miami drug cartel.",
            "release_date": "2020-01-15"
        },
        {
            "popularity": 276.839,
            "vote_count": 1230,
            "video": false,
            "poster_path": "\/8WUVHemHFH2ZIP6NWkwlHWsyrEL.jpg",
            "id": 338762,
            "adult": false,
            "backdrop_path": "\/ocUrMYbdjknu2TwzMHKT9PBBQRw.jpg",
            "original_language": "en",
            "original_title": "Bloodshot",
            "genre_ids": [
                28,
                878
            ],
            "title": "Bloodshot",
            "vote_average": 7.2,
            "overview": "After he and his wife are murdered, marine Ray Garrison is resurrected by a team of scientists. Enhanced with nanotechnology, he becomes a superhuman, biotech killing machine\u2014'Bloodshot'. As Ray first trains with fellow super-soldiers, he cannot recall anything from his former life. But when his memories flood back and he remembers the man that killed both him and his wife, he breaks out of the facility to get revenge, only to discover that there's more to the conspiracy than he thought.",
            "release_date": "2020-02-20"
        },
        {
            "popularity": 276.492,
            "vote_count": 2684,
            "video": false,
            "poster_path": "\/nrsx0jEaBgXq4PWo7SooSnYJTv.jpg",
            "id": 274855,
            "adult": false,
            "backdrop_path": "\/79X8JkGxzc1tJMi0KxUSaPLooVg.jpg",
            "original_language": "en",
            "original_title": "Geostorm",
            "genre_ids": [
                28,
                878,
                53
            ],
            "title": "Geostorm",
            "vote_average": 5.8,
            "overview": "After an unprecedented series of natural disasters threatened the planet, the world's leaders came together to create an intricate network of satellites to control the global climate and keep everyone safe. But now, something has gone wrong: the system built to protect Earth is attacking it, and it becomes a race against the clock to uncover the real threat before a worldwide geostorm wipes out everything and everyone along with it.",
            "release_date": "2017-10-13"
        },
        {
            "popularity": 258.636,
            "vote_count": 1871,
            "video": false,
            "poster_path": "\/4gpW4MkRI0BB17GHOJzXq0WamDP.jpg",
            "id": 300671,
            "adult": false,
            "backdrop_path": "\/hY8myWhjSOUeeiPskhOfwwgaCwc.jpg",
            "original_language": "en",
            "original_title": "13 Hours: The Secret Soldiers of Benghazi",
            "genre_ids": [
                28,
                36,
                53
            ],
            "title": "13 Hours: The Secret Soldiers of Benghazi",
            "vote_average": 7.1,
            "overview": "An American Ambassador is killed during an attack at a U.S. compound in Libya as a security team struggles to make sense out of the chaos.",
            "release_date": "2016-01-13"
        },
        {
            "popularity": 239.338,
            "vote_count": 499,
            "video": false,
            "poster_path": "\/6vaqTxkRnoGwjeLqyZbVuVR7Snv.jpg",
            "id": 443791,
            "adult": false,
            "backdrop_path": "\/fYPiQewg7ogbzro2XcCTACSB2KC.jpg",
            "original_language": "en",
            "original_title": "Underwater",
            "genre_ids": [
                28,
                27,
                878,
                53
            ],
            "title": "Underwater",
            "vote_average": 6.4,
            "overview": "After an earthquake destroys their underwater station, six researchers must navigate two miles along the dangerous, unknown depths of the ocean floor to make it to safety in a race against time.",
            "release_date": "2020-01-08"
        },
        {
            "popularity": 237.952,
            "vote_count": 2513,
            "video": false,
            "poster_path": "\/h4VB6m0RwcicVEZvzftYZyKXs6K.jpg",
            "id": 495764,
            "adult": false,
            "backdrop_path": "\/jiqD14fg7UTZOT6qgvzTmfRYpWI.jpg",
            "original_language": "en",
            "original_title": "Birds of Prey (and the Fantabulous Emancipation of One Harley Quinn)",
            "genre_ids": [
                28,
                35,
                80
            ],
            "title": "Birds of Prey (and the Fantabulous Emancipation of One Harley Quinn)",
            "vote_average": 7.1,
            "overview": "Harley Quinn joins forces with a singer, an assassin and a police detective to help a young girl who had a hit placed on her after she stole a rare diamond from a crime lord.",
            "release_date": "2020-02-05"
        },
        {
            "popularity": 231.517,
            "vote_count": 854,
            "video": false,
            "poster_path": "\/36nD4aDvoFMewiHBnIcGo3vVcd6.jpg",
            "id": 14128,
            "adult": false,
            "backdrop_path": "\/4ErXZZgpXPxDcCLnnLXysK03ss9.jpg",
            "original_language": "en",
            "original_title": "Cinderella II: Dreams Come True",
            "genre_ids": [
                16,
                14,
                10749,
                10751
            ],
            "title": "Cinderella II: Dreams Come True",
            "vote_average": 5.9,
            "overview": "As a newly crowned princess, Cinderella quickly learns that life at the Palace - and her royal responsibilities - are more challenging than she had imagined. In three heartwarming tales, Cinderella calls on her animal friends and her Fairy Godmother to help as she brings her own grace and charm to her regal role and discovers that being true to yourself is the best way to make your dreams come true.",
            "release_date": "2002-02-23"
        },
        {
            "popularity": 205.958,
            "vote_count": 841,
            "video": false,
            "poster_path": "\/f4aul3FyD3jv3v4bul1IrkWZvzq.jpg",
            "id": 508439,
            "adult": false,
            "backdrop_path": "\/xFxk4vnirOtUxpOEWgA1MCRfy6J.jpg",
            "original_language": "en",
            "original_title": "Onward",
            "genre_ids": [
                12,
                16,
                35,
                14,
                10751
            ],
            "title": "Onward",
            "vote_average": 8,
            "overview": "In a suburban fantasy world, two teenage elf brothers embark on an extraordinary quest to discover if there is still a little magic left out there.",
            "release_date": "2020-02-29"
        },
        {
            "popularity": 200.303,
            "vote_count": 1738,
            "video": false,
            "poster_path": "\/8ZX18L5m6rH5viSYpRnTSbb9eXh.jpg",
            "id": 619264,
            "adult": false,
            "backdrop_path": "\/3tkDMNfM2YuIAJlvGO6rfIzAnfG.jpg",
            "original_language": "es",
            "original_title": "El hoyo",
            "genre_ids": [
                18,
                878
            ],
            "title": "The Platform",
            "vote_average": 7.2,
            "overview": "A mysterious place, an indescribable prison, a deep hole. An unknown number of levels. Two inmates living on each level. A descending platform containing food for all of them. An inhuman fight for survival, but also an opportunity for solidarity\u2026",
            "release_date": "2019-11-08"
        },
        {
            "popularity": 189.675,
            "id": 1572,
            "video": false,
            "vote_count": 3731,
            "vote_average": 7.1,
            "title": "Die Hard: With a Vengeance",
            "release_date": "1995-05-19",
            "original_language": "en",
            "original_title": "Die Hard: With a Vengeance",
            "genre_ids": [
                28,
                53
            ],
            "backdrop_path": "\/aJCEQFFXNcfg5YneJzTG15qzxF7.jpg",
            "adult": false,
            "overview": "New York detective John McClane is back and kicking bad-guy butt in the third installment of this action-packed series, which finds him teaming with civilian Zeus Carver to prevent the loss of innocent lives. McClane thought he'd seen it all, until a genius named Simon engages McClane, his new \"partner\" -- and his beloved city -- in a deadly game that demands their concentration.",
            "poster_path": "\/ivpXGcsPZglyYrN65THWSD7JM3q.jpg"
        },
        {
            "popularity": 180.022,
            "vote_count": 3741,
            "video": false,
            "poster_path": "\/db32LaOibwEliAmSL2jjDF6oDdj.jpg",
            "id": 181812,
            "adult": false,
            "backdrop_path": "\/jOzrELAzFxtMx2I4uDGHOotdfsS.jpg",
            "original_language": "en",
            "original_title": "Star Wars: The Rise of Skywalker",
            "genre_ids": [
                28,
                12,
                878
            ],
            "title": "Star Wars: The Rise of Skywalker",
            "vote_average": 6.5,
            "overview": "The surviving Resistance faces the First Order once again as the journey of Rey, Finn and Poe Dameron continues. With the power and knowledge of generations behind them, the final battle begins.",
            "release_date": "2019-12-18"
        },
        {
            "popularity": 178.447,
            "vote_count": 1946,
            "video": false,
            "poster_path": "\/aQvJ5WPzZgYVDrxLX4R6cLJCEaQ.jpg",
            "id": 454626,
            "adult": false,
            "backdrop_path": "\/stmYfCUGd8Iy6kAMBr6AmWqx8Bq.jpg",
            "original_language": "en",
            "original_title": "Sonic the Hedgehog",
            "genre_ids": [
                28,
                16,
                35,
                878,
                10751
            ],
            "title": "Sonic the Hedgehog",
            "vote_average": 7.4,
            "overview": "Based on the global blockbuster videogame franchise from Sega, Sonic the Hedgehog tells the story of the world\u2019s speediest hedgehog as he embraces his new home on Earth. In this live-action adventure comedy, Sonic and his new best friend team up to defend the planet from the evil genius Dr. Robotnik and his plans for world domination.",
            "release_date": "2020-02-12"
        },
        {
            "popularity": 176.327,
            "vote_count": 3529,
            "video": false,
            "poster_path": "\/k1bhUW7XM5X0yD3iewAEvloFBEo.jpg",
            "id": 76285,
            "adult": false,
            "backdrop_path": "\/3NK02PLJSs01SY1hsXUAcqbG3WP.jpg",
            "original_language": "en",
            "original_title": "Percy Jackson: Sea of Monsters",
            "genre_ids": [
                12,
                14,
                10751
            ],
            "title": "Percy Jackson: Sea of Monsters",
            "vote_average": 5.9,
            "overview": "In their quest to confront the ultimate evil, Percy and his friends battle swarms of mythical creatures to find the mythical Golden Fleece and to stop an ancient evil from rising.",
            "release_date": "2013-08-07"
        },
        {
            "popularity": 174.933,
            "vote_count": 2873,
            "video": false,
            "poster_path": "\/bB42KDdfWkOvmzmYkmK58ZlCa9P.jpg",
            "id": 512200,
            "adult": false,
            "backdrop_path": "\/hreiLoPysWG79TsyQgMzFKaOTF5.jpg",
            "original_language": "en",
            "original_title": "Jumanji: The Next Level",
            "genre_ids": [
                12,
                35,
                14
            ],
            "title": "Jumanji: The Next Level",
            "vote_average": 6.8,
            "overview": "As the gang return to Jumanji to rescue one of their own, they discover that nothing is as they expect. The players will have to brave parts unknown and unexplored in order to escape the world\u2019s most dangerous game.",
            "release_date": "2019-12-04"
        },
        {
            "popularity": 166.575,
            "vote_count": 13578,
            "video": false,
            "poster_path": "\/D6e8RJf2qUstnfkTslTXNTUAlT.jpg",
            "id": 102899,
            "adult": false,
            "backdrop_path": "\/kvXLZqY0Ngl1XSw7EaMQO0C1CCj.jpg",
            "original_language": "en",
            "original_title": "Ant-Man",
            "genre_ids": [
                28,
                12,
                878
            ],
            "title": "Ant-Man",
            "vote_average": 7.1,
            "overview": "Armed with the astonishing ability to shrink in scale but increase in strength, master thief Scott Lang must embrace his inner-hero and help his mentor, Doctor Hank Pym, protect the secret behind his spectacular Ant-Man suit from a new generation of towering threats. Against seemingly insurmountable obstacles, Pym and Lang must plan and pull off a heist that will save the world.",
            "release_date": "2015-07-14"
        },
        {
            "popularity": 156.302,
            "vote_count": 770,
            "video": false,
            "poster_path": "\/z4A6mFOLTMZAhCSPRyrtzG0SPbd.jpg",
            "id": 475303,
            "adult": false,
            "backdrop_path": "\/6fkqwqLEcDZOEAnBBfKAniwNxtx.jpg",
            "original_language": "en",
            "original_title": "A Rainy Day in New York",
            "genre_ids": [
                35,
                10749
            ],
            "title": "A Rainy Day in New York",
            "vote_average": 6.6,
            "overview": "Two young people arrive in New York to spend a weekend, but once they arrive they're met with bad weather and a series of adventures.",
            "release_date": "2019-07-26"
        }
    ]
        }
}</string>
</resources>
